"ID","TITLE","HONORIFIC","NAME","SECOND_NAME","LAST_NAME","COMPANY_TITLE","COMPANY_ID","CONTACT_ID","IS_RETURN_CUSTOMER","BIRTHDATE","SOURCE_ID","SOURCE_DESCRIPTION","STATUS_ID","STATUS_DESCRIPTION","POST","COMMENTS","CURRENCY_ID","OPPORTUNITY","HAS_PHONE","HAS_EMAIL","ASSIGNED_BY_ID","CREATED_BY_ID","MODIFY_BY_ID","DATE_CREATE","DATE_MODIFY","DATE_CLOSED","STATUS_SEMANTIC_ID","OPENED","ORIGINATOR_ID","ORIGIN_ID","ADDRESS","ADDRESS_2","ADDRESS_CITY","ADDRESS_POSTAL_CODE","ADDRESS_REGION","ADDRESS_PROVINCE","ADDRESS_COUNTRY","ADDRESS_COUNTRY_CODE","UTM_SOURCE","UTM_MEDIUM","UTM_CAMPAIGN","UTM_CONTENT","UTM_TERM","UF_CRM_1484372848","UF_CRM_1484494718","UF_CRM_1484494739","UF_CRM_1484494781","UF_CRM_1484495508","UF_CRM_1484495744","UF_CRM_1484498099","UF_CRM_1484498113","UF_CRM_1484661545","UF_CRM_1484661722","UF_CRM_1484661750","UF_CRM_1484921990","UF_CRM_1485014584","UF_CRM_1485017992","UF_CRM_1485252641","UF_CRM_1485252656","UF_CRM_1486105518","UF_CRM_1488812124","UF_CRM_1493102721","UF_CRM_1495623199","UF_CRM_1496231195","UF_CRM_1496231211","UF_CRM_1496231221","UF_CRM_1499509452","PHONE.ID","PHONE.VALUE_TYPE","PHONE.VALUE","PHONE.TYPE_ID","EMAIL.ID","EMAIL.VALUE_TYPE","EMAIL.VALUE","EMAIL.TYPE_ID"
"24234","Vikas Jain",,,,,,,,"N","","10",,"DETAILS",,,"(r.s)7/07/2017- explained him the entire system recomended is 8 kw for 54k per kw and 10 kw for 51,  needs a call on monday for cnfirmation of SA.<div><span style=""font-family: arial, sans, sans-serif; font-size: 13px;"">(r.s)10/07/2017-He said ill give you a call for sure weneevr ill be back or u can call after 20.</span></div><div>(r.s)21/07/2017-Disconnected</div><div>(r.s)27/07/2017- Out of delhi</div><br>","USD","0.00","Y","N","22","22","14","2017-07-07T15:04:12+03:00","2017-07-29T09:05:47+03:00","","P","N",,,,,,,,,,,,,,,,"1","","2017-07-31T15:02:00+03:00","","44","58","","","68","2017-07-07T03:00:00+03:00","1","600","","","Greater kailash part-3, new delhi","","9873771116","","222","","","","","256","39596","WORK","9810095999","PHONE",,,,
"28112","Vinod Sachdeva",,,,,,,,"N","","PARTNER",,"2",,,"(p.t)25/07/2017-4 meters..1 meter 15000 bill other 7500 ..so 10Kw on first @ 55k/kW...and SA ready ....sms sent<div>(v.p) 28/7/2017- SA conf by PT</div><br>","USD","0.00","Y","Y","56","56","1","2017-07-25T13:45:47+03:00","2017-07-29T09:49:45+03:00","","P","N",,,,,,,,,,,,,,,,"1","","2017-07-28T21:30:00+03:00","Check If SA done","","58","","","68","2017-07-25T03:00:00+03:00","1","600","","2017-07-29T08:30:00+03:00","D1097 New Friends Colony, Near Mata Mandir","","","110","222","","","","","256","46480","WORK","9810000051","PHONE","46484","WORK","vinodsachdeva1158@gmail.com","EMAIL"
"29142","Vipin ",,,,,,,,"N","","Facebook",,"NEW",,,,,"0.00","Y","Y","58","58","58","2017-07-29T09:56:18+03:00","2017-07-29T09:56:18+03:00","","P","N",,,,,,,,,,,,,,,,"","","","","","","","","","2017-07-28T03:00:00+03:00","","","10000","","Bhajan Pura","110053","","","0","","","","","","48374","HOME","1000000001","PHONE","48372","HOME","convip.sharma@gmail.com","EMAIL"
"29144","Ambarish ",,,,,,,,"N","","Facebook",,"NEW",,,,,"0.00","Y","Y","58","58","58","2017-07-29T09:56:18+03:00","2017-07-29T09:56:18+03:00","","P","N",,,,,,,,,,,,,,,,"","","","","","","","","","2017-07-28T03:00:00+03:00","","","5100","","","22285","","","","","","","","","48378","HOME","1000000002","PHONE","48376","HOME","ambarishsingh1960@gmail.com","EMAIL"
"29148","Anirudh  ",,,,,,,,"N","","Google",,"NEW",,,,,"0.00","Y","Y","58","58","58","2017-07-29T09:56:19+03:00","2017-07-29T09:56:19+03:00","","P","N",,,,,,,,,,,,,,,,"","","","","","","","","","2017-07-29T03:00:00+03:00","","","5000","","Not Selected","277627","","","0","","","","","","48386","HOME","1000000004","PHONE","48384","HOME","Anirudhmaury6@gmail.co","EMAIL"
"29146","Jitender Kumar ",,,,,,,,"N","","Google",,"NEW",,,,,"0.00","Y","Y","58","58","58","2017-07-29T09:56:18+03:00","2017-07-29T09:56:18+03:00","","P","N",,,,,,,,,,,,,,,,"","","","","","","","","","2017-07-29T03:00:00+03:00","","","5000","","Bakoli","110036","","","0","","","","","","48382","HOME","1000000003","PHONE","48380","HOME","jitenderkchauhan007@gmail.com","EMAIL"
"29150","Manish ",,,,,,,,"N","","Google",,"NEW",,,,,"0.00","Y","Y","58","58","58","2017-07-29T09:56:19+03:00","2017-07-29T09:56:19+03:00","","P","N",,,,,,,,,,,,,,,,"","","","","","","","","","2017-07-29T03:00:00+03:00","","","10800","","Kalkaji","110019","","","0","","","","","","48390","HOME","1000000005","PHONE","48388","HOME","manishdxt@yahoo.com","EMAIL"
"29152","Rajkumar ",,,,,,,,"N","","Google",,"NEW",,,,,"0.00","Y","Y","58","58","58","2017-07-29T09:56:20+03:00","2017-07-29T09:56:20+03:00","","P","N",,,,,,,,,,,,,,,,"","","","","","","","","","2017-07-29T03:00:00+03:00","","","5000","","Not Selected","110075","","","0","","","","","","48394","HOME","1000000006","PHONE","48392","HOME","rajkumar76@gmail.com","EMAIL"
"29154","Manjeet  ",,,,,,,,"N","","Google",,"NEW",,,,,"0.00","Y","Y","58","58","58","2017-07-29T09:56:21+03:00","2017-07-29T09:56:21+03:00","","P","N",,,,,,,,,,,,,,,,"","","","","","","","","","2017-07-29T03:00:00+03:00","","","5000","","Sandal Kalan","131001","","","0","","","","","","48398","HOME","1000000007","PHONE","48396","HOME","Vanshbattery2769@gmail.com","EMAIL"
"29156","Deepak  ",,,,,,,,"N","","Google",,"NEW",,,,,"0.00","Y","Y","58","58","58","2017-07-29T09:56:21+03:00","2017-07-29T09:56:21+03:00","","P","N",,,,,,,,,,,,,,,,"","","","","","","","","","2017-07-29T03:00:00+03:00","","","5000","","","143001","","","","","","","","","48402","HOME","1000000008","PHONE","48400","HOME","deepdeepak12358@gmail.com","EMAIL"
"29158","Harendra Kumar Yadav ",,,,,,,,"N","","Google",,"NEW",,,,,"0.00","Y","Y","58","58","58","2017-07-29T09:56:22+03:00","2017-07-29T09:56:22+03:00","","P","N",,,,,,,,,,,,,,,,"","","","","","","","","","2017-07-29T03:00:00+03:00","","","5000","","Not Selected","711107","","","0","","","","","","48406","HOME","1000000009","PHONE","48404","HOME","Harendraray@864gmail.com","EMAIL"
"29160","Archana Suri ",,,,,,,,"N","","Google",,"NEW",,,,,"0.00","Y","Y","58","58","58","2017-07-29T09:56:22+03:00","2017-07-29T09:56:22+03:00","","P","N",,,,,,,,,,,,,,,,"","","","","","","","","","2017-07-29T03:00:00+03:00","","","10000","","Not Selected","110085","","","0","","","","","","48410","HOME","1000000010","PHONE","48408","HOME","suri_archana@rediffmail.com","EMAIL"
"29162","Ved Parkash ",,,,,,,,"N","","Google",,"NEW",,,,,"0.00","Y","Y","58","58","58","2017-07-29T09:56:23+03:00","2017-07-29T09:56:23+03:00","","P","N",,,,,,,,,,,,,,,,"","","","","","","","","","2017-07-29T03:00:00+03:00","","","5000","","Not Selected","151203","","","0","","","","","","48414","HOME","1000000011","PHONE","48412","HOME","vedchawla11@gmail.com","EMAIL"
"29164","Ravi ",,,,,,,,"N","","Google",,"NEW",,,,,"0.00","Y","Y","58","58","58","2017-07-29T09:56:24+03:00","2017-07-29T09:56:24+03:00","","P","N",,,,,,,,,,,,,,,,"","","","","","","","","","2017-07-29T03:00:00+03:00","","","5000","","Please click GO SOLAR, we'll call you back!","202521","","","","","","","","","48418","HOME","1000000012","PHONE","48416","HOME","soccw.bisauli@gmail.com","EMAIL"
"29166","Neeraj ",,,,,,,,"N","","Direct",,"NEW",,,,,"0.00","Y","Y","58","58","58","2017-07-29T09:56:24+03:00","2017-07-29T09:56:24+03:00","","P","N",,,,,,,,,,,,,,,,"","","","","","","","","","2017-07-29T03:00:00+03:00","","","2900","","Khandsa Road","122001","","","0","","","","","","48422","HOME","1000000013","PHONE","48420","HOME","neerajtyagi87@gmail.com","EMAIL"
"29168","Mayank ",,,,,,,,"N","","Google",,"NEW",,,,,"0.00","Y","Y","58","58","58","2017-07-29T09:56:25+03:00","2017-07-29T09:56:25+03:00","","P","N",,,,,,,,,,,,,,,,"","","","","","","","","","2017-07-29T03:00:00+03:00","","","10400","","Not Selected","110018","","","0","","","","","","48426","HOME","1000000014","PHONE","48424","HOME","mayanktuli@hotmail.com","EMAIL"
"29170","Mohit Rawat ",,,,,,,,"N","","Google",,"NEW",,,,,"0.00","Y","Y","58","58","58","2017-07-29T09:56:25+03:00","2017-07-29T09:56:25+03:00","","P","N",,,,,,,,,,,,,,,,"","","","","","","","","","2017-07-29T03:00:00+03:00","","","36300","","Adrash Nagar","110033","","","0","","","","","","48430","HOME","1000000015","PHONE","48428","HOME","mohit.rawat15@bimtech.ac.in","EMAIL"
"29172","Neeraj Sharma ",,,,,,,,"N","","Google",,"NEW",,,,,"0.00","Y","Y","58","58","58","2017-07-29T09:56:26+03:00","2017-07-29T09:56:26+03:00","","P","N",,,,,,,,,,,,,,,,"","","","","","","","","","2017-07-29T03:00:00+03:00","","","5000","","Not Selected","176045","","","0","","","","","","48434","HOME","1000000016","PHONE","48432","HOME","neerajstudio61l@gmail.com","EMAIL"
"29174","Anuj Arora ",,,,,,,,"N","","Google",,"NEW",,,,,"0.00","Y","Y","58","58","58","2017-07-29T09:56:27+03:00","2017-07-29T09:56:27+03:00","","P","N",,,,,,,,,,,,,,,,"","","","","","","","","","2017-07-29T03:00:00+03:00","","","5000","","Not Selected","380053","","","0","","","","","","48438","HOME","1000000017","PHONE","48436","HOME","36anujarora@gmail.com","EMAIL"
"29176","Pankaj ",,,,,,,,"N","","Google",,"NEW",,,,,"0.00","Y","Y","58","58","58","2017-07-29T09:56:27+03:00","2017-07-29T09:56:27+03:00","","P","N",,,,,,,,,,,,,,,,"","","","","","","","","","2017-07-29T03:00:00+03:00","","","5000","","","","","","","","","","","","48442","HOME","1000000018","PHONE","48440","HOME","pankajcharaya@gamil.com","EMAIL"
"29178","Inderjeet ",,,,,,,,"N","","Google",,"NEW",,,,,"0.00","Y","Y","58","58","58","2017-07-29T09:56:28+03:00","2017-07-29T09:56:28+03:00","","P","N",,,,,,,,,,,,,,,,"","","","","","","","","","2017-07-29T03:00:00+03:00","","","5000","","","123","","","","","","","","","48446","HOME","1000000019","PHONE","48444","HOME","sunderahlawat02@gmail.com","EMAIL"
"29180","Shabnam Omprakash Rana ",,,,,,,,"N","","Google",,"NEW",,,,,"0.00","Y","Y","58","58","58","2017-07-29T09:56:29+03:00","2017-07-29T09:56:29+03:00","","P","N",,,,,,,,,,,,,,,,"","","","","","","","","","2017-07-29T03:00:00+03:00","","","5000","","Not Selected","422010","","","0","","","","","","48450","HOME","1000000021","PHONE","48448","HOME","ranashabnam13579@gmail.com","EMAIL"
"29182","K K Agrawal ",,,,,,,,"N","","Google",,"NEW",,,,,"0.00","Y","Y","58","58","58","2017-07-29T09:56:30+03:00","2017-07-29T09:56:30+03:00","","P","N",,,,,,,,,,,,,,,,"","","","","","","","","","2017-07-29T03:00:00+03:00","","","5000","","B.E.L.","246149","","","0","","","","","","48454","HOME","1000000022","PHONE","48452","HOME","kkagarwal@bel.co.in","EMAIL"
"29184","Brajesh Batra ",,,,,,,,"N","","Google",,"NEW",,,,,"0.00","Y","Y","58","58","58","2017-07-29T09:56:30+03:00","2017-07-29T09:56:30+03:00","","P","N",,,,,,,,,,,,,,,,"","","","","","","","","","2017-07-29T03:00:00+03:00","","","5000","","Not Selected","110025","","","0","","","","","","48458","HOME","1000000023","PHONE","48456","HOME","grandenergies.bv@gmail.com","EMAIL"
"29186","Kundan ",,,,,,,,"N","","Google",,"NEW",,,,,"0.00","Y","Y","58","58","58","2017-07-29T09:56:31+03:00","2017-07-29T09:56:31+03:00","","P","N",,,,,,,,,,,,,,,,"","","","","","","","","","2017-07-29T03:00:00+03:00","","","5000","","Not Selected","110077","","","0","","","","","","48462","HOME","1000000024","PHONE","48460","HOME","kundanjeetmauyar1985@rediffmail.com","EMAIL"
"29188","Akhilesh Kumar ",,,,,,,,"N","","Facebook",,"NEW",,,,,"0.00","Y","Y","58","58","58","2017-07-29T09:56:32+03:00","2017-07-29T09:56:32+03:00","","P","N",,,,,,,,,,,,,,,,"","","","","","","","","","2017-07-29T03:00:00+03:00","","","7300","","Najafgarh","110043","","","0","","","","","","48466","HOME","1000000025","PHONE","48464","HOME","akhileshsrivastava61@gmail.com","EMAIL"
"29190","Purushottam Kumar ",,,,,,,,"N","","Google",,"NEW",,,,,"0.00","Y","Y","58","58","58","2017-07-29T09:56:32+03:00","2017-07-29T09:56:32+03:00","","P","N",,,,,,,,,,,,,,,,"","","","","","","","","","2017-07-29T03:00:00+03:00","","","5000","","Not Selected","247341","","","0","","","","","","48470","HOME","1000000026","PHONE","48468","HOME","purushottam.pk.1995@gmail.com","EMAIL"
"29192","Virender Katarmal ",,,,,,,,"N","","Google",,"NEW",,,,,"0.00","Y","Y","58","58","58","2017-07-29T09:56:33+03:00","2017-07-29T09:56:33+03:00","","P","N",,,,,,,,,,,,,,,,"","","","","","","","","","2017-07-29T03:00:00+03:00","","","5000","","Hauz Khas","110016","","","0","","","","","","48474","HOME","1000000027","PHONE","48472","HOME","rajbar.bahadur@gmail.com","EMAIL"
"29194","Shivam Garg ",,,,,,,,"N","","Facebook",,"NEW",,,,,"0.00","Y","Y","58","58","58","2017-07-29T09:56:33+03:00","2017-07-29T09:56:33+03:00","","P","N",,,,,,,,,,,,,,,,"","","","","","","","","","2017-07-29T03:00:00+03:00","","","5000","","Brahampuri","110053","","","0","","","","","","48478","HOME","1000000028","PHONE","48476","HOME","Shivamgarg235@gmail.com","EMAIL"
"29196","Deepak  ",,,,,,,,"N","","Google",,"NEW",,,,,"0.00","Y","Y","58","58","58","2017-07-29T09:56:34+03:00","2017-07-29T09:56:34+03:00","","P","N",,,,,,,,,,,,,,,,"","","","","","","","","","2017-07-29T03:00:00+03:00","","","2500","","Not Selected","123021","","","0","","","","","","48482","HOME","1000000029","PHONE","48480","HOME","deepakkhor77@gmail.com","EMAIL"
"29200","foremailerror",,,,,,,,"N","",,,"NEW",,,,,"0.00","N","Y","58","58","58","2017-07-29T10:07:52+03:00","2017-07-29T10:07:52+03:00","","P","N",,,,,,,,,,,,,,,,false,"","",false,false,false,false,false,false,"",false,false,false,"",false,false,false,false,false,false,false,false,false,false,,,,,"48484","work","email@email.com","EMAIL"
"29202","Vipin ",,,,,,,,"N","","Facebook",,"NEW",,,,,"0.00","Y","Y","58","58","58","2017-07-29T10:17:06+03:00","2017-07-29T10:17:06+03:00","","P","N",,,,,,,,,,,,,,,,"","","","","","","","","","2017-07-28T03:00:00+03:00","","","10000","","Bhajan Pura","110053","","","0","","","","","","48488","HOME","2000000001","PHONE","48486","HOME","convip.sharma@gmail.com","EMAIL"
"29204","Ambarish ",,,,,,,,"N","","Facebook",,"NEW",,,,,"0.00","Y","Y","58","58","58","2017-07-29T10:17:06+03:00","2017-07-29T10:17:06+03:00","","P","N",,,,,,,,,,,,,,,,"","","","","","","","","","2017-07-28T03:00:00+03:00","","","5100","","","22285","","","","","","","","","48492","HOME","2000000002","PHONE","48490","HOME","ambarishsingh1960@gmail.com","EMAIL"
"29206","Jitender Kumar ",,,,,,,,"N","","Google",,"NEW",,,,,"0.00","Y","Y","58","58","58","2017-07-29T10:17:06+03:00","2017-07-29T10:17:06+03:00","","P","N",,,,,,,,,,,,,,,,"","","","","","","","","","2017-07-29T03:00:00+03:00","","","5000","","Bakoli","110036","","","0","","","","","","48496","HOME","2000000003","PHONE","48494","HOME","jitenderkchauhan007@gmail.com","EMAIL"
"29208","Anirudh  ",,,,,,,,"N","","Google",,"NEW",,,,,"0.00","Y","Y","58","58","58","2017-07-29T10:17:07+03:00","2017-07-29T10:17:07+03:00","","P","N",,,,,,,,,,,,,,,,"","","","","","","","","","2017-07-29T03:00:00+03:00","","","5000","","Not Selected","277627","","","0","","","","","","48500","HOME","2000000004","PHONE","48498","HOME","Anirudhmaury6@gmail.co","EMAIL"
"29210","Manish ",,,,,,,,"N","","Google",,"NEW",,,,,"0.00","Y","Y","58","58","58","2017-07-29T10:17:08+03:00","2017-07-29T10:17:08+03:00","","P","N",,,,,,,,,,,,,,,,"","","","","","","","","","2017-07-29T03:00:00+03:00","","","10800","","Kalkaji","110019","","","0","","","","","","48504","HOME","2000000005","PHONE","48502","HOME","manishdxt@yahoo.com","EMAIL"
"29212","Rajkumar ",,,,,,,,"N","","Google",,"NEW",,,,,"0.00","Y","Y","58","58","58","2017-07-29T10:17:08+03:00","2017-07-29T10:17:08+03:00","","P","N",,,,,,,,,,,,,,,,"","","","","","","","","","2017-07-29T03:00:00+03:00","","","5000","","Not Selected","110075","","","0","","","","","","48508","HOME","2000000006","PHONE","48506","HOME","rajkumar76@gmail.com","EMAIL"
"29214","Manjeet  ",,,,,,,,"N","","Google",,"NEW",,,,,"0.00","Y","Y","58","58","58","2017-07-29T10:17:09+03:00","2017-07-29T10:17:09+03:00","","P","N",,,,,,,,,,,,,,,,"","","","","","","","","","2017-07-29T03:00:00+03:00","","","5000","","Sandal Kalan","131001","","","0","","","","","","48512","HOME","2000000007","PHONE","48510","HOME","Vanshbattery2769@gmail.com","EMAIL"
"29216","Deepak  ",,,,,,,,"N","","Google",,"NEW",,,,,"0.00","Y","Y","58","58","58","2017-07-29T10:17:09+03:00","2017-07-29T10:17:09+03:00","","P","N",,,,,,,,,,,,,,,,"","","","","","","","","","2017-07-29T03:00:00+03:00","","","5000","","","143001","","","","","","","","","48516","HOME","2000000008","PHONE","48514","HOME","deepdeepak12358@gmail.com","EMAIL"
"29218","Harendra Kumar Yadav ",,,,,,,,"N","","Google",,"NEW",,,,,"0.00","Y","Y","58","58","58","2017-07-29T10:17:10+03:00","2017-07-29T10:17:10+03:00","","P","N",,,,,,,,,,,,,,,,"","","","","","","","","","2017-07-29T03:00:00+03:00","","","5000","","Not Selected","711107","","","0","","","","","","48520","HOME","2000000009","PHONE","48518","HOME","Harendraray@864gmail.com","EMAIL"
"29220","Archana Suri ",,,,,,,,"N","","Google",,"NEW",,,,,"0.00","Y","Y","58","58","58","2017-07-29T10:17:11+03:00","2017-07-29T10:17:11+03:00","","P","N",,,,,,,,,,,,,,,,"","","","","","","","","","2017-07-29T03:00:00+03:00","","","10000","","Not Selected","110085","","","0","","","","","","48524","HOME","2000000010","PHONE","48522","HOME","suri_archana@rediffmail.com","EMAIL"
"29222","Ved Parkash ",,,,,,,,"N","","Google",,"NEW",,,,,"0.00","Y","Y","58","58","58","2017-07-29T10:17:11+03:00","2017-07-29T10:17:11+03:00","","P","N",,,,,,,,,,,,,,,,"","","","","","","","","","2017-07-29T03:00:00+03:00","","","5000","","Not Selected","151203","","","0","","","","","","48528","HOME","2000000011","PHONE","48526","HOME","vedchawla11@gmail.com","EMAIL"
"29224","Ravi ",,,,,,,,"N","","Google",,"NEW",,,,,"0.00","Y","Y","58","58","58","2017-07-29T10:17:12+03:00","2017-07-29T10:17:12+03:00","","P","N",,,,,,,,,,,,,,,,"","","","","","","","","","2017-07-29T03:00:00+03:00","","","5000","","Please click GO SOLAR, we'll call you back!","202521","","","","","","","","","48532","HOME","2000000012","PHONE","48530","HOME","soccw.bisauli@gmail.com","EMAIL"
"29226","Neeraj ",,,,,,,,"N","","Direct",,"NEW",,,,,"0.00","Y","Y","58","58","58","2017-07-29T10:17:12+03:00","2017-07-29T10:17:12+03:00","","P","N",,,,,,,,,,,,,,,,"","","","","","","","","","2017-07-29T03:00:00+03:00","","","2900","","Khandsa Road","122001","","","0","","","","","","48536","HOME","2000000013","PHONE","48534","HOME","neerajtyagi87@gmail.com","EMAIL"
"29228","Mayank ",,,,,,,,"N","","Google",,"NEW",,,,,"0.00","Y","Y","58","58","58","2017-07-29T10:17:13+03:00","2017-07-29T10:17:13+03:00","","P","N",,,,,,,,,,,,,,,,"","","","","","","","","","2017-07-29T03:00:00+03:00","","","10400","","Not Selected","110018","","","0","","","","","","48540","HOME","2000000014","PHONE","48538","HOME","mayanktuli@hotmail.com","EMAIL"
"29230","Mohit Rawat ",,,,,,,,"N","","Google",,"NEW",,,,,"0.00","Y","Y","58","58","58","2017-07-29T10:17:14+03:00","2017-07-29T10:17:14+03:00","","P","N",,,,,,,,,,,,,,,,"","","","","","","","","","2017-07-29T03:00:00+03:00","","","36300","","Adrash Nagar","110033","","","0","","","","","","48544","HOME","2000000015","PHONE","48542","HOME","mohit.rawat15@bimtech.ac.in","EMAIL"
"29232","Neeraj Sharma ",,,,,,,,"N","","Google",,"NEW",,,,,"0.00","Y","Y","58","58","58","2017-07-29T10:17:14+03:00","2017-07-29T10:17:14+03:00","","P","N",,,,,,,,,,,,,,,,"","","","","","","","","","2017-07-29T03:00:00+03:00","","","5000","","Not Selected","176045","","","0","","","","","","48548","HOME","2000000016","PHONE","48546","HOME","neerajstudio61l@gmail.com","EMAIL"
"29234","Anuj Arora ",,,,,,,,"N","","Google",,"NEW",,,,,"0.00","Y","Y","58","58","58","2017-07-29T10:17:15+03:00","2017-07-29T10:17:15+03:00","","P","N",,,,,,,,,,,,,,,,"","","","","","","","","","2017-07-29T03:00:00+03:00","","","5000","","Not Selected","380053","","","0","","","","","","48552","HOME","2000000017","PHONE","48550","HOME","36anujarora@gmail.com","EMAIL"
"29236","Pankaj ",,,,,,,,"N","","Google",,"NEW",,,,,"0.00","Y","Y","58","58","58","2017-07-29T10:17:16+03:00","2017-07-29T10:17:16+03:00","","P","N",,,,,,,,,,,,,,,,"","","","","","","","","","2017-07-29T03:00:00+03:00","","","5000","","","","","","","","","","","","48556","HOME","2000000018","PHONE","48554","HOME","pankajcharaya@gamil.com","EMAIL"
"29238","Inderjeet ",,,,,,,,"N","","Google",,"NEW",,,,,"0.00","Y","Y","58","58","58","2017-07-29T10:17:16+03:00","2017-07-29T10:17:16+03:00","","P","N",,,,,,,,,,,,,,,,"","","","","","","","","","2017-07-29T03:00:00+03:00","","","5000","","","123","","","","","","","","","48560","HOME","2000000019","PHONE","48558","HOME","sunderahlawat02@gmail.com","EMAIL"
"29240","Shabnam Omprakash Rana ",,,,,,,,"N","","Google",,"NEW",,,,,"0.00","Y","Y","58","58","58","2017-07-29T10:17:17+03:00","2017-07-29T10:17:17+03:00","","P","N",,,,,,,,,,,,,,,,"","","","","","","","","","2017-07-29T03:00:00+03:00","","","5000","","Not Selected","422010","","","0","","","","","","48564","HOME","2000000021","PHONE","48562","HOME","ranashabnam13579@gmail.com","EMAIL"
"29242","K K Agrawal ",,,,,,,,"N","","Google",,"NEW",,,,,"0.00","Y","Y","58","58","58","2017-07-29T10:17:18+03:00","2017-07-29T10:17:18+03:00","","P","N",,,,,,,,,,,,,,,,"","","","","","","","","","2017-07-29T03:00:00+03:00","","","5000","","B.E.L.","246149","","","0","","","","","","48568","HOME","2000000022","PHONE","48566","HOME","kkagarwal@bel.co.in","EMAIL"
"29244","Brajesh Batra ",,,,,,,,"N","","Google",,"NEW",,,,,"0.00","Y","Y","58","58","58","2017-07-29T10:17:19+03:00","2017-07-29T10:17:19+03:00","","P","N",,,,,,,,,,,,,,,,"","","","","","","","","","2017-07-29T03:00:00+03:00","","","5000","","Not Selected","110025","","","0","","","","","","48572","HOME","2000000023","PHONE","48570","HOME","grandenergies.bv@gmail.com","EMAIL"
"29246","Kundan ",,,,,,,,"N","","Google",,"NEW",,,,,"0.00","Y","Y","58","58","58","2017-07-29T10:17:19+03:00","2017-07-29T10:17:19+03:00","","P","N",,,,,,,,,,,,,,,,"","","","","","","","","","2017-07-29T03:00:00+03:00","","","5000","","Not Selected","110077","","","0","","","","","","48576","HOME","2000000024","PHONE","48574","HOME","kundanjeetmauyar1985@rediffmail.com","EMAIL"
"29248","Akhilesh Kumar ",,,,,,,,"N","","Facebook",,"NEW",,,,,"0.00","Y","Y","58","58","58","2017-07-29T10:17:20+03:00","2017-07-29T10:17:20+03:00","","P","N",,,,,,,,,,,,,,,,"","","","","","","","","","2017-07-29T03:00:00+03:00","","","7300","","Najafgarh","110043","","","0","","","","","","48580","HOME","2000000025","PHONE","48578","HOME","akhileshsrivastava61@gmail.com","EMAIL"
"29250","Purushottam Kumar ",,,,,,,,"N","","Google",,"NEW",,,,,"0.00","Y","Y","58","58","58","2017-07-29T10:17:20+03:00","2017-07-29T10:17:20+03:00","","P","N",,,,,,,,,,,,,,,,"","","","","","","","","","2017-07-29T03:00:00+03:00","","","5000","","Not Selected","247341","","","0","","","","","","48584","HOME","2000000026","PHONE","48582","HOME","purushottam.pk.1995@gmail.com","EMAIL"
"29252","Virender Katarmal ",,,,,,,,"N","","Google",,"NEW",,,,,"0.00","Y","Y","58","58","58","2017-07-29T10:17:21+03:00","2017-07-29T10:17:21+03:00","","P","N",,,,,,,,,,,,,,,,"","","","","","","","","","2017-07-29T03:00:00+03:00","","","5000","","Hauz Khas","110016","","","0","","","","","","48588","HOME","2000000027","PHONE","48586","HOME","rajbar.bahadur@gmail.com","EMAIL"
"29254","Shivam Garg ",,,,,,,,"N","","Facebook",,"NEW",,,,,"0.00","Y","Y","58","58","58","2017-07-29T10:17:22+03:00","2017-07-29T10:17:22+03:00","","P","N",,,,,,,,,,,,,,,,"","","","","","","","","","2017-07-29T03:00:00+03:00","","","5000","","Brahampuri","110053","","","0","","","","","","48592","HOME","2000000028","PHONE","48590","HOME","Shivamgarg235@gmail.com","EMAIL"
"29256","Deepak  ",,,,,,,,"N","","Google",,"NEW",,,,,"0.00","Y","Y","58","58","58","2017-07-29T10:17:22+03:00","2017-07-29T10:17:22+03:00","","P","N",,,,,,,,,,,,,,,,"","","","","","","","","","2017-07-29T03:00:00+03:00","","","2500","","Not Selected","123021","","","0","","","","","","48596","HOME","2000000029","PHONE","48594","HOME","deepakkhor77@gmail.com","EMAIL"
"29260","Vipin ",,,,,,,,"N","","Facebook",,"NEW",,,,,"0.00","Y","Y","58","58","58","2017-07-29T10:27:13+03:00","2017-07-29T10:27:13+03:00","","P","N",,,,,,,,,,,,,,,,"","","","","","","","","","2017-07-28T03:00:00+03:00","","","10000","","Bhajan Pura","110053","","","0","","","","","","48602","HOME","3000000001","PHONE","48600","HOME","convip.sharma@gmail.com","EMAIL"
"29262","Ambarish ",,,,,,,,"N","","Facebook",,"NEW",,,,,"0.00","Y","Y","58","58","58","2017-07-29T10:27:13+03:00","2017-07-29T10:27:13+03:00","","P","N",,,,,,,,,,,,,,,,"","","","","","","","","","2017-07-28T03:00:00+03:00","","","5100","","","22285","","","","","","","","","48606","HOME","3000000002","PHONE","48604","HOME","ambarishsingh1960@gmail.com","EMAIL"
"29264","Jitender Kumar ",,,,,,,,"N","","Google",,"NEW",,,,,"0.00","Y","Y","58","58","58","2017-07-29T10:27:14+03:00","2017-07-29T10:27:14+03:00","","P","N",,,,,,,,,,,,,,,,"","","","","","","","","","2017-07-29T03:00:00+03:00","","","5000","","Bakoli","110036","","","0","","","","","","48610","HOME","3000000003","PHONE","48608","HOME","jitenderkchauhan007@gmail.com","EMAIL"
"29266","Anirudh  ",,,,,,,,"N","","Google",,"NEW",,,,,"0.00","Y","Y","58","58","58","2017-07-29T10:27:14+03:00","2017-07-29T10:27:14+03:00","","P","N",,,,,,,,,,,,,,,,"","","","","","","","","","2017-07-29T03:00:00+03:00","","","5000","","Not Selected","277627","","","0","","","","","","48614","HOME","3000000004","PHONE","48612","HOME","Anirudhmaury6@gmail.co","EMAIL"
"29268","Manish ",,,,,,,,"N","","Google",,"NEW",,,,,"0.00","Y","Y","58","58","58","2017-07-29T10:27:15+03:00","2017-07-29T10:27:15+03:00","","P","N",,,,,,,,,,,,,,,,"","","","","","","","","","2017-07-29T03:00:00+03:00","","","10800","","Kalkaji","110019","","","0","","","","","","48618","HOME","3000000005","PHONE","48616","HOME","manishdxt@yahoo.com","EMAIL"
"29270","Rajkumar ",,,,,,,,"N","","Google",,"NEW",,,,,"0.00","Y","Y","58","58","58","2017-07-29T10:27:16+03:00","2017-07-29T10:27:16+03:00","","P","N",,,,,,,,,,,,,,,,"","","","","","","","","","2017-07-29T03:00:00+03:00","","","5000","","Not Selected","110075","","","0","","","","","","48622","HOME","3000000006","PHONE","48620","HOME","rajkumar76@gmail.com","EMAIL"
"29272","Manjeet  ",,,,,,,,"N","","Google",,"NEW",,,,,"0.00","Y","Y","58","58","58","2017-07-29T10:27:16+03:00","2017-07-29T10:27:16+03:00","","P","N",,,,,,,,,,,,,,,,"","","","","","","","","","2017-07-29T03:00:00+03:00","","","5000","","Sandal Kalan","131001","","","0","","","","","","48626","HOME","3000000007","PHONE","48624","HOME","Vanshbattery2769@gmail.com","EMAIL"
"29274","Deepak  ",,,,,,,,"N","","Google",,"NEW",,,,,"0.00","Y","Y","58","58","58","2017-07-29T10:27:17+03:00","2017-07-29T10:27:17+03:00","","P","N",,,,,,,,,,,,,,,,"","","","","","","","","","2017-07-29T03:00:00+03:00","","","5000","","","143001","","","","","","","","","48630","HOME","3000000008","PHONE","48628","HOME","deepdeepak12358@gmail.com","EMAIL"
"29276","Harendra Kumar Yadav ",,,,,,,,"N","","Google",,"NEW",,,,,"0.00","Y","Y","58","58","58","2017-07-29T10:27:17+03:00","2017-07-29T10:27:17+03:00","","P","N",,,,,,,,,,,,,,,,"","","","","","","","","","2017-07-29T03:00:00+03:00","","","5000","","Not Selected","711107","","","0","","","","","","48634","HOME","3000000009","PHONE","48632","HOME","Harendraray@864gmail.com","EMAIL"
"29278","Archana Suri ",,,,,,,,"N","","Google",,"NEW",,,,,"0.00","Y","Y","58","58","58","2017-07-29T10:27:18+03:00","2017-07-29T10:27:18+03:00","","P","N",,,,,,,,,,,,,,,,"","","","","","","","","","2017-07-29T03:00:00+03:00","","","10000","","Not Selected","110085","","","0","","","","","","48638","HOME","3000000010","PHONE","48636","HOME","suri_archana@rediffmail.com","EMAIL"
"29280","Ved Parkash ",,,,,,,,"N","","Google",,"NEW",,,,,"0.00","Y","Y","58","58","58","2017-07-29T10:27:19+03:00","2017-07-29T10:27:19+03:00","","P","N",,,,,,,,,,,,,,,,"","","","","","","","","","2017-07-29T03:00:00+03:00","","","5000","","Not Selected","151203","","","0","","","","","","48642","HOME","3000000011","PHONE","48640","HOME","vedchawla11@gmail.com","EMAIL"
"29282","Ravi ",,,,,,,,"N","","Google",,"NEW",,,,,"0.00","Y","Y","58","58","58","2017-07-29T10:27:19+03:00","2017-07-29T10:27:19+03:00","","P","N",,,,,,,,,,,,,,,,"","","","","","","","","","2017-07-29T03:00:00+03:00","","","5000","","Please click GO SOLAR, we'll call you back!","202521","","","","","","","","","48646","HOME","3000000012","PHONE","48644","HOME","soccw.bisauli@gmail.com","EMAIL"
"29284","Neeraj ",,,,,,,,"N","","Direct",,"NEW",,,,,"0.00","Y","Y","58","58","58","2017-07-29T10:27:20+03:00","2017-07-29T10:27:20+03:00","","P","N",,,,,,,,,,,,,,,,"","","","","","","","","","2017-07-29T03:00:00+03:00","","","2900","","Khandsa Road","122001","","","0","","","","","","48650","HOME","3000000013","PHONE","48648","HOME","neerajtyagi87@gmail.com","EMAIL"
"29286","Mayank ",,,,,,,,"N","","Google",,"NEW",,,,,"0.00","Y","Y","58","58","58","2017-07-29T10:27:20+03:00","2017-07-29T10:27:20+03:00","","P","N",,,,,,,,,,,,,,,,"","","","","","","","","","2017-07-29T03:00:00+03:00","","","10400","","Not Selected","110018","","","0","","","","","","48654","HOME","3000000014","PHONE","48652","HOME","mayanktuli@hotmail.com","EMAIL"
"29288","Mohit Rawat ",,,,,,,,"N","","Google",,"NEW",,,,,"0.00","Y","Y","58","58","58","2017-07-29T10:27:21+03:00","2017-07-29T10:27:21+03:00","","P","N",,,,,,,,,,,,,,,,"","","","","","","","","","2017-07-29T03:00:00+03:00","","","36300","","Adrash Nagar","110033","","","0","","","","","","48658","HOME","3000000015","PHONE","48656","HOME","mohit.rawat15@bimtech.ac.in","EMAIL"
"29290","Neeraj Sharma ",,,,,,,,"N","","Google",,"NEW",,,,,"0.00","Y","Y","58","58","58","2017-07-29T10:27:22+03:00","2017-07-29T10:27:22+03:00","","P","N",,,,,,,,,,,,,,,,"","","","","","","","","","2017-07-29T03:00:00+03:00","","","5000","","Not Selected","176045","","","0","","","","","","48662","HOME","3000000016","PHONE","48660","HOME","neerajstudio61l@gmail.com","EMAIL"
"29292","Anuj Arora ",,,,,,,,"N","","Google",,"NEW",,,,,"0.00","Y","Y","58","58","58","2017-07-29T10:27:22+03:00","2017-07-29T10:27:22+03:00","","P","N",,,,,,,,,,,,,,,,"","","","","","","","","","2017-07-29T03:00:00+03:00","","","5000","","Not Selected","380053","","","0","","","","","","48666","HOME","3000000017","PHONE","48664","HOME","36anujarora@gmail.com","EMAIL"
"29294","Pankaj ",,,,,,,,"N","","Google",,"NEW",,,,,"0.00","Y","Y","58","58","58","2017-07-29T10:27:23+03:00","2017-07-29T10:27:23+03:00","","P","N",,,,,,,,,,,,,,,,"","","","","","","","","","2017-07-29T03:00:00+03:00","","","5000","","","","","","","","","","","","48670","HOME","3000000018","PHONE","48668","HOME","pankajcharaya@gamil.com","EMAIL"
"29296","Inderjeet ",,,,,,,,"N","","Google",,"NEW",,,,,"0.00","Y","Y","58","58","58","2017-07-29T10:27:24+03:00","2017-07-29T10:27:24+03:00","","P","N",,,,,,,,,,,,,,,,"","","","","","","","","","2017-07-29T03:00:00+03:00","","","5000","","","123","","","","","","","","","48674","HOME","3000000019","PHONE","48672","HOME","sunderahlawat02@gmail.com","EMAIL"
"29298","Shabnam Omprakash Rana ",,,,,,,,"N","","Google",,"NEW",,,,,"0.00","Y","Y","58","58","58","2017-07-29T10:27:25+03:00","2017-07-29T10:27:25+03:00","","P","N",,,,,,,,,,,,,,,,"","","","","","","","","","2017-07-29T03:00:00+03:00","","","5000","","Not Selected","422010","","","0","","","","","","48678","HOME","3000000021","PHONE","48676","HOME","ranashabnam13579@gmail.com","EMAIL"
"29300","K K Agrawal ",,,,,,,,"N","","Google",,"NEW",,,,,"0.00","Y","Y","58","58","58","2017-07-29T10:27:25+03:00","2017-07-29T10:27:25+03:00","","P","N",,,,,,,,,,,,,,,,"","","","","","","","","","2017-07-29T03:00:00+03:00","","","5000","","B.E.L.","246149","","","0","","","","","","48682","HOME","3000000022","PHONE","48680","HOME","kkagarwal@bel.co.in","EMAIL"
"29302","Brajesh Batra ",,,,,,,,"N","","Google",,"NEW",,,,,"0.00","Y","Y","58","58","58","2017-07-29T10:27:26+03:00","2017-07-29T10:27:26+03:00","","P","N",,,,,,,,,,,,,,,,"","","","","","","","","","2017-07-29T03:00:00+03:00","","","5000","","Not Selected","110025","","","0","","","","","","48686","HOME","3000000023","PHONE","48684","HOME","grandenergies.bv@gmail.com","EMAIL"
"29304","Kundan ",,,,,,,,"N","","Google",,"NEW",,,,,"0.00","Y","Y","58","58","58","2017-07-29T10:27:27+03:00","2017-07-29T10:27:27+03:00","","P","N",,,,,,,,,,,,,,,,"","","","","","","","","","2017-07-29T03:00:00+03:00","","","5000","","Not Selected","110077","","","0","","","","","","48690","HOME","3000000024","PHONE","48688","HOME","kundanjeetmauyar1985@rediffmail.com","EMAIL"
"29306","Akhilesh Kumar ",,,,,,,,"N","","Facebook",,"NEW",,,,,"0.00","Y","Y","58","58","58","2017-07-29T10:27:27+03:00","2017-07-29T10:27:27+03:00","","P","N",,,,,,,,,,,,,,,,"","","","","","","","","","2017-07-29T03:00:00+03:00","","","7300","","Najafgarh","110043","","","0","","","","","","48694","HOME","3000000025","PHONE","48692","HOME","akhileshsrivastava61@gmail.com","EMAIL"
"29308","Purushottam Kumar ",,,,,,,,"N","","Google",,"NEW",,,,,"0.00","Y","Y","58","58","58","2017-07-29T10:27:28+03:00","2017-07-29T10:27:28+03:00","","P","N",,,,,,,,,,,,,,,,"","","","","","","","","","2017-07-29T03:00:00+03:00","","","5000","","Not Selected","247341","","","0","","","","","","48698","HOME","3000000026","PHONE","48696","HOME","purushottam.pk.1995@gmail.com","EMAIL"
"29310","Virender Katarmal ",,,,,,,,"N","","Google",,"NEW",,,,,"0.00","Y","Y","58","58","58","2017-07-29T10:27:28+03:00","2017-07-29T10:27:28+03:00","","P","N",,,,,,,,,,,,,,,,"","","","","","","","","","2017-07-29T03:00:00+03:00","","","5000","","Hauz Khas","110016","","","0","","","","","","48702","HOME","3000000027","PHONE","48700","HOME","rajbar.bahadur@gmail.com","EMAIL"
"29312","Shivam Garg ",,,,,,,,"N","","Facebook",,"NEW",,,,,"0.00","Y","Y","58","58","58","2017-07-29T10:27:29+03:00","2017-07-29T10:27:29+03:00","","P","N",,,,,,,,,,,,,,,,"","","","","","","","","","2017-07-29T03:00:00+03:00","","","5000","","Brahampuri","110053","","","0","","","","","","48706","HOME","3000000028","PHONE","48704","HOME","Shivamgarg235@gmail.com","EMAIL"
"29314","Deepak  ",,,,,,,,"N","","Google",,"NEW",,,,,"0.00","Y","Y","58","58","58","2017-07-29T10:27:30+03:00","2017-07-29T10:27:30+03:00","","P","N",,,,,,,,,,,,,,,,"","","","","","","","","","2017-07-29T03:00:00+03:00","","","2500","","Not Selected","123021","","","0","","","","","","48710","HOME","3000000029","PHONE","48708","HOME","deepakkhor77@gmail.com","EMAIL"
